<svg width="137" height="37" viewBox="0 0 137 37" fill="none" xmlns="http://www.w3.org/2000/svg">
<rect width="137" height="37" rx="18.5" fill="#ECF2F5"/>
<path d="M122 17.5L125 20.5L128 17.5" stroke="#556FB5" stroke-width="1.5" stroke-linecap="round" stroke-linejoin="round"/>
<circle cx="19" cy="19" r="13" fill="#556FB5"/>
<path fill-rule="evenodd" clip-rule="evenodd" d="M10.4351 28.7797C10.5974 27.869 10.9281 26.8319 11.7058 25.9536C12.1453 25.457 13.242 25.1127 14.429 24.7401C15.3253 24.4587 16.2732 24.1611 17.0285 23.7696L20.802 22.7556C21.5806 22.9881 22.5366 23.1756 23.5283 23.37C25.6407 23.7842 27.9146 24.2301 28.9779 25.2111C29.356 25.5599 29.5782 25.9643 29.6925 26.3963C27.3458 29.7824 23.432 32 19.0002 32C15.7194 32 12.7225 30.7847 10.4351 28.7797Z" fill="#4BAEA0"/>
<path d="M13.4217 14.1913C13.1915 13.6318 13.4593 13.2259 12.3997 12.619C11.0751 11.8604 13.7795 7.35295 15.1115 7.2433C16.1348 7.15905 15.4887 8.18233 14.9881 8.7662C15.4863 8.21165 16.6802 7.22986 17.9514 7.24615C18.9963 7.25954 18.7835 7.80708 18.3937 8.25251C18.987 7.80228 20.1213 7.44226 21.6651 8.28139C23.5809 9.32267 23.6198 9.98731 23.3998 10.1895C24.1719 10.6255 25.6701 11.8957 25.4857 13.4885C25.2552 15.4795 25.1169 16.6741 23.3332 18.0041C21.9063 19.0682 21.0273 19.3772 20.7661 19.3987L13.4217 14.1913Z" fill="#273D79"/>
<path d="M21.672 23.0445C21.4464 22.5048 21.3327 18.8461 21.2387 17.8445L17.6236 19.8191C18.0889 23.4769 16.9775 23.4912 16.9775 23.9496C16.9775 24.4222 17.2518 27.0171 18.0095 26.7854C20.0734 26.7854 21.8242 23.4085 21.672 23.0445Z" fill="#FBA68B"/>
<path d="M14.1983 19.4833C13.4959 17.9029 12.5785 17.8629 12.8071 17.2931C13.0023 16.8065 14.2078 15.8422 13.5003 14.4272C13.3431 14.1127 13.1859 13.6043 13.5003 13.2155C14.5406 11.9291 17.2071 11.3253 18.7675 11.5184C21.5095 11.8577 19.7934 11.6065 20.1782 13.2155C20.5631 14.8246 22.2337 14.2295 21.7746 16.3182C21.9664 16.0921 22.6907 14.2234 23.3168 14.9292C23.9428 15.6349 22.5882 16.6193 21.8585 17.3367C21.6274 17.7239 21.0324 18.2251 20.6555 19.0134C20.1845 19.9987 17.3641 20.9609 15.9695 21.2134C14.67 21.4487 14.5128 20.1909 14.1983 19.4833Z" fill="#FFB198"/>
<path d="M42.252 23.108C41.748 23.108 41.296 23.024 40.896 22.856C40.496 22.68 40.18 22.44 39.948 22.136C39.716 21.824 39.588 21.468 39.564 21.068H40.692C40.724 21.396 40.876 21.664 41.148 21.872C41.428 22.08 41.792 22.184 42.24 22.184C42.656 22.184 42.984 22.092 43.224 21.908C43.464 21.724 43.584 21.492 43.584 21.212C43.584 20.924 43.456 20.712 43.2 20.576C42.944 20.432 42.548 20.292 42.012 20.156C41.524 20.028 41.124 19.9 40.812 19.772C40.508 19.636 40.244 19.44 40.02 19.184C39.804 18.92 39.696 18.576 39.696 18.152C39.696 17.816 39.796 17.508 39.996 17.228C40.196 16.948 40.48 16.728 40.848 16.568C41.216 16.4 41.636 16.316 42.108 16.316C42.836 16.316 43.424 16.5 43.872 16.868C44.32 17.236 44.56 17.74 44.592 18.38H43.5C43.476 18.036 43.336 17.76 43.08 17.552C42.832 17.344 42.496 17.24 42.072 17.24C41.68 17.24 41.368 17.324 41.136 17.492C40.904 17.66 40.788 17.88 40.788 18.152C40.788 18.368 40.856 18.548 40.992 18.692C41.136 18.828 41.312 18.94 41.52 19.028C41.736 19.108 42.032 19.2 42.408 19.304C42.88 19.432 43.264 19.56 43.56 19.688C43.856 19.808 44.108 19.992 44.316 20.24C44.532 20.488 44.644 20.812 44.652 21.212C44.652 21.572 44.552 21.896 44.352 22.184C44.152 22.472 43.868 22.7 43.5 22.868C43.14 23.028 42.724 23.108 42.252 23.108ZM52.0255 16.424V23H50.9335V22.028C50.7255 22.364 50.4335 22.628 50.0575 22.82C49.6895 23.004 49.2815 23.096 48.8335 23.096C48.3215 23.096 47.8615 22.992 47.4535 22.784C47.0455 22.568 46.7215 22.248 46.4815 21.824C46.2495 21.4 46.1335 20.884 46.1335 20.276V16.424H47.2135V20.132C47.2135 20.78 47.3775 21.28 47.7055 21.632C48.0335 21.976 48.4815 22.148 49.0495 22.148C49.6335 22.148 50.0935 21.968 50.4295 21.608C50.7655 21.248 50.9335 20.724 50.9335 20.036V16.424H52.0255ZM54.9613 17.636C55.1773 17.26 55.4973 16.948 55.9213 16.7C56.3533 16.444 56.8533 16.316 57.4213 16.316C58.0053 16.316 58.5333 16.456 59.0053 16.736C59.4853 17.016 59.8613 17.412 60.1333 17.924C60.4053 18.428 60.5413 19.016 60.5413 19.688C60.5413 20.352 60.4053 20.944 60.1333 21.464C59.8613 21.984 59.4853 22.388 59.0053 22.676C58.5333 22.964 58.0053 23.108 57.4213 23.108C56.8613 23.108 56.3653 22.984 55.9333 22.736C55.5093 22.48 55.1853 22.164 54.9613 21.788V26.12H53.8693V16.424H54.9613V17.636ZM59.4253 19.688C59.4253 19.192 59.3253 18.76 59.1253 18.392C58.9253 18.024 58.6533 17.744 58.3093 17.552C57.9733 17.36 57.6013 17.264 57.1933 17.264C56.7933 17.264 56.4213 17.364 56.0773 17.564C55.7413 17.756 55.4693 18.04 55.2613 18.416C55.0613 18.784 54.9613 19.212 54.9613 19.7C54.9613 20.196 55.0613 20.632 55.2613 21.008C55.4693 21.376 55.7413 21.66 56.0773 21.86C56.4213 22.052 56.7933 22.148 57.1933 22.148C57.6013 22.148 57.9733 22.052 58.3093 21.86C58.6533 21.66 58.9253 21.376 59.1253 21.008C59.3253 20.632 59.4253 20.192 59.4253 19.688ZM67.9787 19.46C67.9787 19.668 67.9667 19.888 67.9427 20.12H62.6867C62.7267 20.768 62.9467 21.276 63.3467 21.644C63.7547 22.004 64.2467 22.184 64.8227 22.184C65.2947 22.184 65.6867 22.076 65.9987 21.86C66.3187 21.636 66.5427 21.34 66.6707 20.972H67.8467C67.6707 21.604 67.3187 22.12 66.7907 22.52C66.2627 22.912 65.6067 23.108 64.8227 23.108C64.1987 23.108 63.6387 22.968 63.1427 22.688C62.6547 22.408 62.2707 22.012 61.9907 21.5C61.7107 20.98 61.5707 20.38 61.5707 19.7C61.5707 19.02 61.7067 18.424 61.9787 17.912C62.2507 17.4 62.6307 17.008 63.1187 16.736C63.6147 16.456 64.1827 16.316 64.8227 16.316C65.4467 16.316 65.9987 16.452 66.4787 16.724C66.9587 16.996 67.3267 17.372 67.5827 17.852C67.8467 18.324 67.9787 18.86 67.9787 19.46ZM66.8507 19.232C66.8507 18.816 66.7587 18.46 66.5747 18.164C66.3907 17.86 66.1387 17.632 65.8187 17.48C65.5067 17.32 65.1587 17.24 64.7747 17.24C64.2227 17.24 63.7507 17.416 63.3587 17.768C62.9747 18.12 62.7547 18.608 62.6987 19.232H66.8507ZM70.5121 17.492C70.7041 17.116 70.9761 16.824 71.3281 16.616C71.6881 16.408 72.1241 16.304 72.6361 16.304V17.432H72.3481C71.1241 17.432 70.5121 18.096 70.5121 19.424V23H69.4201V16.424H70.5121V17.492ZM73.4887 19.688C73.4887 19.016 73.6247 18.428 73.8967 17.924C74.1687 17.412 74.5407 17.016 75.0127 16.736C75.4927 16.456 76.0247 16.316 76.6087 16.316C77.1847 16.316 77.6847 16.44 78.1087 16.688C78.5327 16.936 78.8487 17.248 79.0567 17.624V16.424H80.1607V23H79.0567V21.776C78.8407 22.16 78.5167 22.48 78.0847 22.736C77.6607 22.984 77.1647 23.108 76.5967 23.108C76.0127 23.108 75.4847 22.964 75.0127 22.676C74.5407 22.388 74.1687 21.984 73.8967 21.464C73.6247 20.944 73.4887 20.352 73.4887 19.688ZM79.0567 19.7C79.0567 19.204 78.9567 18.772 78.7567 18.404C78.5567 18.036 78.2847 17.756 77.9407 17.564C77.6047 17.364 77.2327 17.264 76.8247 17.264C76.4167 17.264 76.0447 17.36 75.7087 17.552C75.3727 17.744 75.1047 18.024 74.9047 18.392C74.7047 18.76 74.6047 19.192 74.6047 19.688C74.6047 20.192 74.7047 20.632 74.9047 21.008C75.1047 21.376 75.3727 21.66 75.7087 21.86C76.0447 22.052 76.4167 22.148 76.8247 22.148C77.2327 22.148 77.6047 22.052 77.9407 21.86C78.2847 21.66 78.5567 21.376 78.7567 21.008C78.9567 20.632 79.0567 20.196 79.0567 19.7ZM81.598 19.688C81.598 19.016 81.734 18.428 82.006 17.924C82.278 17.412 82.65 17.016 83.122 16.736C83.602 16.456 84.138 16.316 84.73 16.316C85.242 16.316 85.718 16.436 86.158 16.676C86.598 16.908 86.934 17.216 87.166 17.6V14.12H88.27V23H87.166V21.764C86.95 22.156 86.63 22.48 86.206 22.736C85.782 22.984 85.286 23.108 84.718 23.108C84.134 23.108 83.602 22.964 83.122 22.676C82.65 22.388 82.278 21.984 82.006 21.464C81.734 20.944 81.598 20.352 81.598 19.688ZM87.166 19.7C87.166 19.204 87.066 18.772 86.866 18.404C86.666 18.036 86.394 17.756 86.05 17.564C85.714 17.364 85.342 17.264 84.934 17.264C84.526 17.264 84.154 17.36 83.818 17.552C83.482 17.744 83.214 18.024 83.014 18.392C82.814 18.76 82.714 19.192 82.714 19.688C82.714 20.192 82.814 20.632 83.014 21.008C83.214 21.376 83.482 21.66 83.818 21.86C84.154 22.052 84.526 22.148 84.934 22.148C85.342 22.148 85.714 22.052 86.05 21.86C86.394 21.66 86.666 21.376 86.866 21.008C87.066 20.632 87.166 20.196 87.166 19.7ZM98.0234 16.304C98.5354 16.304 98.9914 16.412 99.3914 16.628C99.7914 16.836 100.107 17.152 100.339 17.576C100.571 18 100.687 18.516 100.687 19.124V23H99.6074V19.28C99.6074 18.624 99.4434 18.124 99.1154 17.78C98.7954 17.428 98.3594 17.252 97.8074 17.252C97.2394 17.252 96.7874 17.436 96.4514 17.804C96.1154 18.164 95.9474 18.688 95.9474 19.376V23H94.8674V19.28C94.8674 18.624 94.7034 18.124 94.3754 17.78C94.0554 17.428 93.6194 17.252 93.0674 17.252C92.4994 17.252 92.0474 17.436 91.7114 17.804C91.3754 18.164 91.2074 18.688 91.2074 19.376V23H90.1154V16.424H91.2074V17.372C91.4234 17.028 91.7114 16.764 92.0714 16.58C92.4394 16.396 92.8434 16.304 93.2834 16.304C93.8354 16.304 94.3234 16.428 94.7474 16.676C95.1714 16.924 95.4874 17.288 95.6954 17.768C95.8794 17.304 96.1834 16.944 96.6074 16.688C97.0314 16.432 97.5034 16.304 98.0234 16.304ZM103.043 15.356C102.835 15.356 102.659 15.284 102.515 15.14C102.371 14.996 102.299 14.82 102.299 14.612C102.299 14.404 102.371 14.228 102.515 14.084C102.659 13.94 102.835 13.868 103.043 13.868C103.243 13.868 103.411 13.94 103.547 14.084C103.691 14.228 103.763 14.404 103.763 14.612C103.763 14.82 103.691 14.996 103.547 15.14C103.411 15.284 103.243 15.356 103.043 15.356ZM103.571 16.424V23H102.479V16.424H103.571ZM108.636 16.304C109.436 16.304 110.084 16.548 110.58 17.036C111.076 17.516 111.324 18.212 111.324 19.124V23H110.244V19.28C110.244 18.624 110.08 18.124 109.752 17.78C109.424 17.428 108.976 17.252 108.408 17.252C107.832 17.252 107.372 17.432 107.028 17.792C106.692 18.152 106.524 18.676 106.524 19.364V23H105.432V16.424H106.524V17.36C106.74 17.024 107.032 16.764 107.4 16.58C107.776 16.396 108.188 16.304 108.636 16.304Z" fill="#556FB5"/>
</svg>
