<svg width="16" height="17" viewBox="0 0 16 17" fill="none" xmlns="http://www.w3.org/2000/svg">
<path d="M11 6.65867L5 2.98242" stroke="#1A253B" stroke-width="1.5" stroke-linecap="round" stroke-linejoin="round"/>
<path d="M14 11.3332V5.66652C13.9998 5.41809 13.938 5.17409 13.821 4.95901C13.704 4.74392 13.5358 4.56531 13.3333 4.4411L8.66667 1.60777C8.46397 1.48343 8.23405 1.41797 8 1.41797C7.76595 1.41797 7.53603 1.48343 7.33333 1.60777L2.66667 4.4411C2.46418 4.56531 2.29599 4.74392 2.17897 4.95901C2.06196 5.17409 2.00024 5.41809 2 5.66652V11.3332C2.00024 11.5816 2.06196 11.8256 2.17897 12.0407C2.29599 12.2558 2.46418 12.4344 2.66667 12.5586L7.33333 15.3919C7.53603 15.5163 7.76595 15.5817 8 15.5817C8.23405 15.5817 8.46397 15.5163 8.66667 15.3919L13.3333 12.5586C13.5358 12.4344 13.704 12.2558 13.821 12.0407C13.938 11.8256 13.9998 11.5816 14 11.3332Z" stroke="#1A253B" stroke-width="1.5" stroke-linecap="round" stroke-linejoin="round"/>
<path d="M2.17999 4.92969L7.99999 8.50677L13.82 4.92969" stroke="#1A253B" stroke-width="1.5" stroke-linecap="round" stroke-linejoin="round"/>
<path d="M8 15.64V8.5" stroke="#1A253B" stroke-width="1.5" stroke-linecap="round" stroke-linejoin="round"/>
</svg>
