<svg width="16" height="17" viewBox="0 0 16 17" fill="none" xmlns="http://www.w3.org/2000/svg">
<path d="M13.7266 9.49883L8.94665 14.5776C8.82282 14.7093 8.67576 14.8138 8.5139 14.8851C8.35204 14.9564 8.17853 14.9931 8.00331 14.9931C7.82809 14.9931 7.65459 14.9564 7.49273 14.8851C7.33086 14.8138 7.18381 14.7093 7.05998 14.5776L1.33331 8.50008V1.41675H7.99998L13.7266 7.50133C13.975 7.76676 14.1144 8.12582 14.1144 8.50008C14.1144 8.87434 13.975 9.2334 13.7266 9.49883V9.49883Z" stroke="#1A253B" stroke-width="1.5" stroke-linecap="round" stroke-linejoin="round"/>
<path d="M4.66669 4.95825H4.67377" stroke="#1A253B" stroke-width="1.5" stroke-linecap="round" stroke-linejoin="round"/>
</svg>